data/osci/NewFile5.csv

X,CH1,Start,Increment,
Sequence,Volt,-1.200000e-07,2.000000e-10
0,0.00e+00,
1,0.00e+00,
2,-4.00e-04,
3,-4.00e-04,
4,0.00e+00,
5,0.00e+00,
6,0.00e+00,
7,0.00e+00,
8,0.00e+00,
9,0.00e+00,
10,0.00e+00,
11,0.00e+00,
12,0.00e+00,
13,0.00e+00,
14,4.00e-04,
15,4.00e-04,
16,4.00e-04,
17,4.00e-04,
18,4.00e-04,
19,4.00e-04,
20,8.00e-04,
21,8.00e-04,
22,4.00e-04,
23,4.00e-04,
24,4.00e-04,
25,4.00e-04,
26,0.00e+00,
27,0.00e+00,
28,8.00e-04,
29,8.00e-04,
30,4.00e-04,
31,4.00e-04,
32,8.00e-04,
33,8.00e-04,
34,8.00e-04,
35,8.00e-04,
36,4.00e-04,
37,4.00e-04,
38,0.00e+00,
39,0.00e+00,
40,0.00e+00,
41,0.00e+00,
42,4.00e-04,
43,4.00e-04,
44,4.00e-04,
45,4.00e-04,
46,4.00e-04,
47,4.00e-04,
48,8.00e-04,
49,8.00e-04,
50,4.00e-04,
51,4.00e-04,
52,4.00e-04,
53,4.00e-04,
54,8.00e-04,
55,8.00e-04,
56,4.00e-04,
57,4.00e-04,
58,0.00e+00,
59,0.00e+00,
60,4.00e-04,
61,4.00e-04,
62,0.00e+00,
63,0.00e+00,
64,4.00e-04,
65,4.00e-04,
66,4.00e-04,
67,4.00e-04,
68,4.00e-04,
69,4.00e-04,
70,8.00e-04,
71,8.00e-04,
72,4.00e-04,
73,4.00e-04,
74,4.00e-04,
75,4.00e-04,
76,8.00e-04,
77,8.00e-04,
78,4.00e-04,
79,4.00e-04,
80,8.00e-04,
81,8.00e-04,
82,4.00e-04,
83,4.00e-04,
84,8.00e-04,
85,8.00e-04,
86,4.00e-04,
87,4.00e-04,
88,4.00e-04,
89,4.00e-04,
90,4.00e-04,
91,4.00e-04,
92,4.00e-04,
93,4.00e-04,
94,8.00e-04,
95,8.00e-04,
96,4.00e-04,
97,4.00e-04,
98,4.00e-04,
99,4.00e-04,
100,4.00e-04,
101,4.00e-04,
102,0.00e+00,
103,0.00e+00,
104,8.00e-04,
105,8.00e-04,
106,4.00e-04,
107,4.00e-04,
108,8.00e-04,
109,8.00e-04,
110,8.00e-04,
111,8.00e-04,
112,8.00e-04,
113,8.00e-04,
114,8.00e-04,
115,8.00e-04,
116,8.00e-04,
117,8.00e-04,
118,0.00e+00,
119,0.00e+00,
120,4.00e-04,
121,4.00e-04,
122,4.00e-04,
123,4.00e-04,
124,4.00e-04,
125,4.00e-04,
126,8.00e-04,
127,8.00e-04,
128,8.00e-04,
129,8.00e-04,
130,4.00e-04,
131,4.00e-04,
132,8.00e-04,
133,8.00e-04,
134,8.00e-04,
135,8.00e-04,
136,4.00e-04,
137,4.00e-04,
138,4.00e-04,
139,4.00e-04,
140,4.00e-04,
141,4.00e-04,
142,4.00e-04,
143,4.00e-04,
144,4.00e-04,
145,4.00e-04,
146,4.00e-04,
147,4.00e-04,
148,4.00e-04,
149,4.00e-04,
150,4.00e-04,
151,4.00e-04,
152,4.00e-04,
153,4.00e-04,
154,8.00e-04,
155,8.00e-04,
156,0.00e+00,
157,0.00e+00,
158,0.00e+00,
159,0.00e+00,
160,0.00e+00,
161,0.00e+00,
162,0.00e+00,
163,0.00e+00,
164,4.00e-04,
165,4.00e-04,
166,0.00e+00,
167,0.00e+00,
168,4.00e-04,
169,4.00e-04,
170,0.00e+00,
171,0.00e+00,
172,4.00e-04,
173,4.00e-04,
174,8.00e-04,
175,8.00e-04,
176,0.00e+00,
177,0.00e+00,
178,0.00e+00,
179,0.00e+00,
180,4.00e-04,
181,4.00e-04,
182,8.00e-04,
183,8.00e-04,
184,8.00e-04,
185,8.00e-04,
186,4.00e-04,
187,4.00e-04,
188,4.00e-04,
189,4.00e-04,
190,4.00e-04,
191,4.00e-04,
192,8.00e-04,
193,8.00e-04,
194,8.00e-04,
195,8.00e-04,
196,8.00e-04,
197,8.00e-04,
198,0.00e+00,
199,0.00e+00,
200,4.00e-04,
201,4.00e-04,
202,4.00e-04,
203,4.00e-04,
204,4.00e-04,
205,4.00e-04,
206,8.00e-04,
207,8.00e-04,
208,4.00e-04,
209,4.00e-04,
210,8.00e-04,
211,8.00e-04,
212,8.00e-04,
213,8.00e-04,
214,8.00e-04,
215,8.00e-04,
216,4.00e-04,
217,4.00e-04,
218,4.00e-04,
219,4.00e-04,
220,4.00e-04,
221,4.00e-04,
222,8.00e-04,
223,8.00e-04,
224,8.00e-04,
225,8.00e-04,
226,4.00e-04,
227,4.00e-04,
228,8.00e-04,
229,8.00e-04,
230,8.00e-04,
231,8.00e-04,
232,8.00e-04,
233,8.00e-04,
234,8.00e-04,
235,8.00e-04,
236,8.00e-04,
237,8.00e-04,
238,8.00e-04,
239,8.00e-04,
240,4.00e-04,
241,4.00e-04,
242,4.00e-04,
243,4.00e-04,
244,4.00e-04,
245,4.00e-04,
246,8.00e-04,
247,8.00e-04,
248,4.00e-04,
249,4.00e-04,
250,4.00e-04,
251,4.00e-04,
252,4.00e-04,
253,4.00e-04,
254,8.00e-04,
255,8.00e-04,
256,4.00e-04,
257,4.00e-04,
258,4.00e-04,
259,4.00e-04,
260,4.00e-04,
261,4.00e-04,
262,0.00e+00,
263,0.00e+00,
264,4.00e-04,
265,4.00e-04,
266,8.00e-04,
267,8.00e-04,
268,8.00e-04,
269,8.00e-04,
270,8.00e-04,
271,8.00e-04,
272,8.00e-04,
273,8.00e-04,
274,4.00e-04,
275,4.00e-04,
276,4.00e-04,
277,4.00e-04,
278,4.00e-04,
279,4.00e-04,
280,0.00e+00,
281,0.00e+00,
282,4.00e-04,
283,4.00e-04,
284,8.00e-04,
285,8.00e-04,
286,4.00e-04,
287,4.00e-04,
288,8.00e-04,
289,8.00e-04,
290,4.00e-04,
291,4.00e-04,
292,4.00e-04,
293,4.00e-04,
294,4.00e-04,
295,4.00e-04,
296,0.00e+00,
297,0.00e+00,
298,0.00e+00,
299,0.00e+00,
300,0.00e+00,
301,0.00e+00,
302,0.00e+00,
303,0.00e+00,
304,4.00e-04,
305,4.00e-04,
306,4.00e-04,
307,4.00e-04,
308,8.00e-04,
309,8.00e-04,
310,4.00e-04,
311,4.00e-04,
312,4.00e-04,
313,4.00e-04,
314,4.00e-04,
315,4.00e-04,
316,4.00e-04,
317,4.00e-04,
318,8.00e-04,
319,8.00e-04,
320,4.00e-04,
321,4.00e-04,
322,8.00e-04,
323,8.00e-04,
324,8.00e-04,
325,8.00e-04,
326,4.00e-04,
327,4.00e-04,
328,8.00e-04,
329,8.00e-04,
330,4.00e-04,
331,4.00e-04,
332,8.00e-04,
333,8.00e-04,
334,4.00e-04,
335,4.00e-04,
336,4.00e-04,
337,4.00e-04,
338,0.00e+00,
339,0.00e+00,
340,0.00e+00,
341,0.00e+00,
342,0.00e+00,
343,0.00e+00,
344,8.00e-04,
345,8.00e-04,
346,4.00e-04,
347,4.00e-04,
348,4.00e-04,
349,4.00e-04,
350,4.00e-04,
351,4.00e-04,
352,8.00e-04,
353,8.00e-04,
354,1.20e-03,
355,1.20e-03,
356,8.00e-04,
357,8.00e-04,
358,4.00e-04,
359,4.00e-04,
360,4.00e-04,
361,4.00e-04,
362,4.00e-04,
363,4.00e-04,
364,4.00e-04,
365,4.00e-04,
366,4.00e-04,
367,4.00e-04,
368,8.00e-04,
369,8.00e-04,
370,4.00e-04,
371,4.00e-04,
372,4.00e-04,
373,4.00e-04,
374,8.00e-04,
375,8.00e-04,
376,0.00e+00,
377,0.00e+00,
378,4.00e-04,
379,4.00e-04,
380,4.00e-04,
381,4.00e-04,
382,0.00e+00,
383,0.00e+00,
384,4.00e-04,
385,4.00e-04,
386,4.00e-04,
387,4.00e-04,
388,4.00e-04,
389,4.00e-04,
390,4.00e-04,
391,4.00e-04,
392,8.00e-04,
393,8.00e-04,
394,8.00e-04,
395,8.00e-04,
396,4.00e-04,
397,4.00e-04,
398,8.00e-04,
399,8.00e-04,
400,8.00e-04,
401,8.00e-04,
402,4.00e-04,
403,4.00e-04,
404,4.00e-04,
405,4.00e-04,
406,4.00e-04,
407,4.00e-04,
408,0.00e+00,
409,0.00e+00,
410,0.00e+00,
411,0.00e+00,
412,0.00e+00,
413,0.00e+00,
414,8.00e-04,
415,8.00e-04,
416,0.00e+00,
417,0.00e+00,
418,4.00e-04,
419,4.00e-04,
420,0.00e+00,
421,0.00e+00,
422,0.00e+00,
423,0.00e+00,
424,4.00e-04,
425,4.00e-04,
426,8.00e-04,
427,8.00e-04,
428,8.00e-04,
429,8.00e-04,
430,4.00e-04,
431,4.00e-04,
432,8.00e-04,
433,8.00e-04,
434,8.00e-04,
435,8.00e-04,
436,0.00e+00,
437,0.00e+00,
438,4.00e-04,
439,4.00e-04,
440,4.00e-04,
441,4.00e-04,
442,4.00e-04,
443,4.00e-04,
444,4.00e-04,
445,4.00e-04,
446,4.00e-04,
447,4.00e-04,
448,4.00e-04,
449,4.00e-04,
450,4.00e-04,
451,4.00e-04,
452,4.00e-04,
453,4.00e-04,
454,4.00e-04,
455,4.00e-04,
456,0.00e+00,
457,0.00e+00,
458,4.00e-04,
459,4.00e-04,
460,4.00e-04,
461,4.00e-04,
462,4.00e-04,
463,4.00e-04,
464,4.00e-04,
465,4.00e-04,
466,4.00e-04,
467,4.00e-04,
468,4.00e-04,
469,4.00e-04,
470,8.00e-04,
471,8.00e-04,
472,8.00e-04,
473,8.00e-04,
474,8.00e-04,
475,8.00e-04,
476,4.00e-04,
477,4.00e-04,
478,8.00e-04,
479,8.00e-04,
480,8.00e-04,
481,8.00e-04,
482,8.00e-04,
483,8.00e-04,
484,8.00e-04,
485,8.00e-04,
486,4.00e-04,
487,4.00e-04,
488,4.00e-04,
489,4.00e-04,
490,4.00e-04,
491,4.00e-04,
492,0.00e+00,
493,0.00e+00,
494,4.00e-04,
495,4.00e-04,
496,8.00e-04,
497,8.00e-04,
498,4.00e-04,
499,4.00e-04,
500,4.00e-04,
501,4.00e-04,
502,4.00e-04,
503,4.00e-04,
504,4.00e-04,
505,4.00e-04,
506,0.00e+00,
507,0.00e+00,
508,8.00e-04,
509,8.00e-04,
510,4.00e-04,
511,4.00e-04,
512,8.00e-04,
513,8.00e-04,
514,8.00e-04,
515,8.00e-04,
516,8.00e-04,
517,8.00e-04,
518,0.00e+00,
519,0.00e+00,
520,4.00e-04,
521,4.00e-04,
522,4.00e-04,
523,4.00e-04,
524,4.00e-04,
525,4.00e-04,
526,8.00e-04,
527,8.00e-04,
528,8.00e-04,
529,8.00e-04,
530,8.00e-04,
531,8.00e-04,
532,4.00e-04,
533,4.00e-04,
534,8.00e-04,
535,8.00e-04,
536,0.00e+00,
537,0.00e+00,
538,0.00e+00,
539,0.00e+00,
540,0.00e+00,
541,0.00e+00,
542,0.00e+00,
543,0.00e+00,
544,8.00e-04,
545,8.00e-04,
546,4.00e-04,
547,4.00e-04,
548,0.00e+00,
549,0.00e+00,
550,-4.00e-04,
551,-4.00e-04,
552,-1.60e-03,
553,-1.60e-03,
554,-2.80e-03,
555,-2.80e-03,
556,-4.80e-03,
557,-4.80e-03,
558,-6.80e-03,
559,-6.80e-03,
560,-1.00e-02,
561,-1.00e-02,
562,-1.32e-02,
563,-1.32e-02,
564,-1.64e-02,
565,-1.64e-02,
566,-1.92e-02,
567,-1.92e-02,
568,-2.16e-02,
569,-2.16e-02,
570,-2.40e-02,
571,-2.40e-02,
572,-2.64e-02,
573,-2.64e-02,
574,-2.84e-02,
575,-2.84e-02,
576,-3.12e-02,
577,-3.12e-02,
578,-3.20e-02,
579,-3.20e-02,
580,-3.36e-02,
581,-3.36e-02,
582,-3.36e-02,
583,-3.36e-02,
584,-3.28e-02,
585,-3.28e-02,
586,-3.24e-02,
587,-3.24e-02,
588,-3.04e-02,
589,-3.04e-02,
590,-2.88e-02,
591,-2.88e-02,
592,-2.72e-02,
593,-2.72e-02,
594,-2.56e-02,
595,-2.56e-02,
596,-2.40e-02,
597,-2.40e-02,
598,-2.24e-02,
599,-2.24e-02,
600,-2.08e-02,
601,-2.08e-02,
602,-1.88e-02,
603,-1.88e-02,
604,-1.68e-02,
605,-1.68e-02,
606,-1.52e-02,
607,-1.52e-02,
608,-1.32e-02,
609,-1.32e-02,
610,-1.20e-02,
611,-1.20e-02,
612,-1.08e-02,
613,-1.08e-02,
614,-9.60e-03,
615,-9.60e-03,
616,-8.40e-03,
617,-8.40e-03,
618,-7.60e-03,
619,-7.60e-03,
620,-6.80e-03,
621,-6.80e-03,
622,-5.60e-03,
623,-5.60e-03,
624,-4.80e-03,
625,-4.80e-03,
626,-4.40e-03,
627,-4.40e-03,
628,-4.00e-03,
629,-4.00e-03,
630,-2.80e-03,
631,-2.80e-03,
632,-2.80e-03,
633,-2.80e-03,
634,-2.00e-03,
635,-2.00e-03,
636,-1.60e-03,
637,-1.60e-03,
638,-1.20e-03,
639,-1.20e-03,
640,-1.20e-03,
641,-1.20e-03,
642,-1.20e-03,
643,-1.20e-03,
644,-1.20e-03,
645,-1.20e-03,
646,-1.20e-03,
647,-1.20e-03,
648,-8.00e-04,
649,-8.00e-04,
650,-4.00e-04,
651,-4.00e-04,
652,-4.00e-04,
653,-4.00e-04,
654,0.00e+00,
655,0.00e+00,
656,-4.00e-04,
657,-4.00e-04,
658,-4.00e-04,
659,-4.00e-04,
660,-4.00e-04,
661,-4.00e-04,
662,0.00e+00,
663,0.00e+00,
664,0.00e+00,
665,0.00e+00,
666,0.00e+00,
667,0.00e+00,
668,8.00e-04,
669,8.00e-04,
670,8.00e-04,
671,8.00e-04,
672,8.00e-04,
673,8.00e-04,
674,4.00e-04,
675,4.00e-04,
676,4.00e-04,
677,4.00e-04,
678,4.00e-04,
679,4.00e-04,
680,0.00e+00,
681,0.00e+00,
682,0.00e+00,
683,0.00e+00,
684,8.00e-04,
685,8.00e-04,
686,8.00e-04,
687,8.00e-04,
688,1.20e-03,
689,1.20e-03,
690,8.00e-04,
691,8.00e-04,
692,1.20e-03,
693,1.20e-03,
694,1.60e-03,
695,1.60e-03,
696,1.60e-03,
697,1.60e-03,
698,1.20e-03,
699,1.20e-03,
700,1.60e-03,
701,1.60e-03,
702,1.20e-03,
703,1.20e-03,
704,1.60e-03,
705,1.60e-03,
706,1.60e-03,
707,1.60e-03,
708,1.20e-03,
709,1.20e-03,
710,1.20e-03,
711,1.20e-03,
712,0.00e+00,
713,0.00e+00,
714,4.00e-04,
715,4.00e-04,
716,-4.00e-04,
717,-4.00e-04,
718,-4.00e-04,
719,-4.00e-04,
720,-8.00e-04,
721,-8.00e-04,
722,-1.20e-03,
723,-1.20e-03,
724,-1.20e-03,
725,-1.20e-03,
726,-1.20e-03,
727,-1.20e-03,
728,-1.20e-03,
729,-1.20e-03,
730,-8.00e-04,
731,-8.00e-04,
732,-8.00e-04,
733,-8.00e-04,
734,-8.00e-04,
735,-8.00e-04,
736,-1.60e-03,
737,-1.60e-03,
738,-8.00e-04,
739,-8.00e-04,
740,-8.00e-04,
741,-8.00e-04,
742,-8.00e-04,
743,-8.00e-04,
744,0.00e+00,
745,0.00e+00,
746,-4.00e-04,
747,-4.00e-04,
748,0.00e+00,
749,0.00e+00,
750,0.00e+00,
751,0.00e+00,
752,-4.00e-04,
753,-4.00e-04,
754,-4.00e-04,
755,-4.00e-04,
756,-4.00e-04,
757,-4.00e-04,
758,-4.00e-04,
759,-4.00e-04,
760,-4.00e-04,
761,-4.00e-04,
762,0.00e+00,
763,0.00e+00,
764,0.00e+00,
765,0.00e+00,
766,0.00e+00,
767,0.00e+00,
768,4.00e-04,
769,4.00e-04,
770,4.00e-04,
771,4.00e-04,
772,0.00e+00,
773,0.00e+00,
774,4.00e-04,
775,4.00e-04,
776,4.00e-04,
777,4.00e-04,
778,0.00e+00,
779,0.00e+00,
780,4.00e-04,
781,4.00e-04,
782,0.00e+00,
783,0.00e+00,
784,8.00e-04,
785,8.00e-04,
786,4.00e-04,
787,4.00e-04,
788,4.00e-04,
789,4.00e-04,
790,4.00e-04,
791,4.00e-04,
792,4.00e-04,
793,4.00e-04,
794,4.00e-04,
795,4.00e-04,
796,8.00e-04,
797,8.00e-04,
798,8.00e-04,
799,8.00e-04,
800,8.00e-04,
801,8.00e-04,
802,4.00e-04,
803,4.00e-04,
804,8.00e-04,
805,8.00e-04,
806,0.00e+00,
807,0.00e+00,
808,0.00e+00,
809,0.00e+00,
810,4.00e-04,
811,4.00e-04,
812,4.00e-04,
813,4.00e-04,
814,8.00e-04,
815,8.00e-04,
816,4.00e-04,
817,4.00e-04,
818,0.00e+00,
819,0.00e+00,
820,4.00e-04,
821,4.00e-04,
822,0.00e+00,
823,0.00e+00,
824,4.00e-04,
825,4.00e-04,
826,8.00e-04,
827,8.00e-04,
828,8.00e-04,
829,8.00e-04,
830,4.00e-04,
831,4.00e-04,
832,8.00e-04,
833,8.00e-04,
834,8.00e-04,
835,8.00e-04,
836,8.00e-04,
837,8.00e-04,
838,4.00e-04,
839,4.00e-04,
840,4.00e-04,
841,4.00e-04,
842,8.00e-04,
843,8.00e-04,
844,8.00e-04,
845,8.00e-04,
846,4.00e-04,
847,4.00e-04,
848,8.00e-04,
849,8.00e-04,
850,8.00e-04,
851,8.00e-04,
852,4.00e-04,
853,4.00e-04,
854,4.00e-04,
855,4.00e-04,
856,4.00e-04,
857,4.00e-04,
858,4.00e-04,
859,4.00e-04,
860,4.00e-04,
861,4.00e-04,
862,4.00e-04,
863,4.00e-04,
864,8.00e-04,
865,8.00e-04,
866,4.00e-04,
867,4.00e-04,
868,4.00e-04,
869,4.00e-04,
870,4.00e-04,
871,4.00e-04,
872,4.00e-04,
873,4.00e-04,
874,0.00e+00,
875,0.00e+00,
876,0.00e+00,
877,0.00e+00,
878,4.00e-04,
879,4.00e-04,
880,4.00e-04,
881,4.00e-04,
882,4.00e-04,
883,4.00e-04,
884,4.00e-04,
885,4.00e-04,
886,4.00e-04,
887,4.00e-04,
888,8.00e-04,
889,8.00e-04,
890,8.00e-04,
891,8.00e-04,
892,4.00e-04,
893,4.00e-04,
894,8.00e-04,
895,8.00e-04,
896,4.00e-04,
897,4.00e-04,
898,8.00e-04,
899,8.00e-04,
900,8.00e-04,
901,8.00e-04,
902,1.20e-03,
903,1.20e-03,
904,1.20e-03,
905,1.20e-03,
906,4.00e-04,
907,4.00e-04,
908,4.00e-04,
909,4.00e-04,
910,4.00e-04,
911,4.00e-04,
912,8.00e-04,
913,8.00e-04,
914,8.00e-04,
915,8.00e-04,
916,8.00e-04,
917,8.00e-04,
918,0.00e+00,
919,0.00e+00,
920,4.00e-04,
921,4.00e-04,
922,0.00e+00,
923,0.00e+00,
924,8.00e-04,
925,8.00e-04,
926,4.00e-04,
927,4.00e-04,
928,0.00e+00,
929,0.00e+00,
930,4.00e-04,
931,4.00e-04,
932,4.00e-04,
933,4.00e-04,
934,8.00e-04,
935,8.00e-04,
936,4.00e-04,
937,4.00e-04,
938,4.00e-04,
939,4.00e-04,
940,0.00e+00,
941,0.00e+00,
942,0.00e+00,
943,0.00e+00,
944,4.00e-04,
945,4.00e-04,
946,4.00e-04,
947,4.00e-04,
948,8.00e-04,
949,8.00e-04,
950,4.00e-04,
951,4.00e-04,
952,4.00e-04,
953,4.00e-04,
954,1.20e-03,
955,1.20e-03,
956,8.00e-04,
957,8.00e-04,
958,8.00e-04,
959,8.00e-04,
960,4.00e-04,
961,4.00e-04,
962,8.00e-04,
963,8.00e-04,
964,4.00e-04,
965,4.00e-04,
966,0.00e+00,
967,0.00e+00,
968,0.00e+00,
969,0.00e+00,
970,4.00e-04,
971,4.00e-04,
972,4.00e-04,
973,4.00e-04,
974,8.00e-04,
975,8.00e-04,
976,4.00e-04,
977,4.00e-04,
978,8.00e-04,
979,8.00e-04,
980,4.00e-04,
981,4.00e-04,
982,8.00e-04,
983,8.00e-04,
984,8.00e-04,
985,8.00e-04,
986,8.00e-04,
987,8.00e-04,
988,8.00e-04,
989,8.00e-04,
990,8.00e-04,
991,8.00e-04,
992,4.00e-04,
993,4.00e-04,
994,8.00e-04,
995,8.00e-04,
996,4.00e-04,
997,4.00e-04,
998,4.00e-04,
999,4.00e-04,
1000,8.00e-04,
1001,8.00e-04,
1002,4.00e-04,
1003,4.00e-04,
1004,8.00e-04,
1005,8.00e-04,
1006,8.00e-04,
1007,8.00e-04,
1008,4.00e-04,
1009,4.00e-04,
1010,4.00e-04,
1011,4.00e-04,
1012,0.00e+00,
1013,0.00e+00,
1014,4.00e-04,
1015,4.00e-04,
1016,8.00e-04,
1017,8.00e-04,
1018,4.00e-04,
1019,4.00e-04,
1020,4.00e-04,
1021,4.00e-04,
1022,0.00e+00,
1023,0.00e+00,
1024,0.00e+00,
1025,0.00e+00,
1026,-4.00e-04,
1027,-4.00e-04,
1028,0.00e+00,
1029,0.00e+00,
1030,4.00e-04,
1031,4.00e-04,
1032,4.00e-04,
1033,4.00e-04,
1034,4.00e-04,
1035,4.00e-04,
1036,4.00e-04,
1037,4.00e-04,
1038,0.00e+00,
1039,0.00e+00,
1040,4.00e-04,
1041,4.00e-04,
1042,0.00e+00,
1043,0.00e+00,
1044,8.00e-04,
1045,8.00e-04,
1046,4.00e-04,
1047,4.00e-04,
1048,0.00e+00,
1049,0.00e+00,
1050,0.00e+00,
1051,0.00e+00,
1052,0.00e+00,
1053,0.00e+00,
1054,8.00e-04,
1055,8.00e-04,
1056,4.00e-04,
1057,4.00e-04,
1058,4.00e-04,
1059,4.00e-04,
1060,0.00e+00,
1061,0.00e+00,
1062,4.00e-04,
1063,4.00e-04,
1064,1.20e-03,
1065,1.20e-03,
1066,1.20e-03,
1067,1.20e-03,
1068,8.00e-04,
1069,8.00e-04,
1070,8.00e-04,
1071,8.00e-04,
1072,8.00e-04,
1073,8.00e-04,
1074,8.00e-04,
1075,8.00e-04,
1076,4.00e-04,
1077,4.00e-04,
1078,0.00e+00,
1079,0.00e+00,
1080,4.00e-04,
1081,4.00e-04,
1082,4.00e-04,
1083,4.00e-04,
1084,4.00e-04,
1085,4.00e-04,
1086,0.00e+00,
1087,0.00e+00,
1088,0.00e+00,
1089,0.00e+00,
1090,0.00e+00,
1091,0.00e+00,
1092,0.00e+00,
1093,0.00e+00,
1094,4.00e-04,
1095,4.00e-04,
1096,0.00e+00,
1097,0.00e+00,
1098,0.00e+00,
1099,0.00e+00,
1100,4.00e-04,
1101,4.00e-04,
1102,4.00e-04,
1103,4.00e-04,
1104,4.00e-04,
1105,4.00e-04,
1106,8.00e-04,
1107,8.00e-04,
1108,4.00e-04,
1109,4.00e-04,
1110,4.00e-04,
1111,4.00e-04,
1112,1.20e-03,
1113,1.20e-03,
1114,1.20e-03,
1115,1.20e-03,
1116,8.00e-04,
1117,8.00e-04,
1118,0.00e+00,
1119,0.00e+00,
1120,0.00e+00,
1121,0.00e+00,
1122,4.00e-04,
1123,4.00e-04,
1124,4.00e-04,
1125,4.00e-04,
1126,0.00e+00,
1127,0.00e+00,
1128,4.00e-04,
1129,4.00e-04,
1130,4.00e-04,
1131,4.00e-04,
1132,4.00e-04,
1133,4.00e-04,
1134,8.00e-04,
1135,8.00e-04,
1136,0.00e+00,
1137,0.00e+00,
1138,0.00e+00,
1139,0.00e+00,
1140,0.00e+00,
1141,0.00e+00,
1142,0.00e+00,
1143,0.00e+00,
1144,8.00e-04,
1145,8.00e-04,
1146,4.00e-04,
1147,4.00e-04,
1148,0.00e+00,
1149,0.00e+00,
1150,4.00e-04,
1151,4.00e-04,
1152,8.00e-04,
1153,8.00e-04,
1154,1.20e-03,
1155,1.20e-03,
1156,4.00e-04,
1157,4.00e-04,
1158,4.00e-04,
1159,4.00e-04,
1160,4.00e-04,
1161,4.00e-04,
1162,0.00e+00,
1163,0.00e+00,
1164,4.00e-04,
1165,4.00e-04,
1166,4.00e-04,
1167,4.00e-04,
1168,8.00e-04,
1169,8.00e-04,
1170,8.00e-04,
1171,8.00e-04,
1172,0.00e+00,
1173,0.00e+00,
1174,4.00e-04,
1175,4.00e-04,
1176,4.00e-04,
1177,4.00e-04,
1178,8.00e-04,
1179,8.00e-04,
1180,8.00e-04,
1181,8.00e-04,
1182,8.00e-04,
1183,8.00e-04,
1184,8.00e-04,
1185,8.00e-04,
1186,4.00e-04,
1187,4.00e-04,
1188,8.00e-04,
1189,8.00e-04,
1190,8.00e-04,
1191,8.00e-04,
1192,8.00e-04,
1193,8.00e-04,
1194,8.00e-04,
1195,8.00e-04,
1196,4.00e-04,
1197,4.00e-04,
1198,0.00e+00,
1199,0.00e+00,
