data/osci/NewFile9.csv

X,CH1,CH2,Start,Increment,
Sequence,Volt,Volt,-1.440000e-06,5.000000e-09
0,8.00e-04,-8.00e-03,
1,1.60e-03,-1.20e-02,
2,1.60e-03,-8.00e-03,
3,8.00e-04,-1.20e-02,
4,8.00e-04,-8.00e-03,
5,1.60e-03,-1.20e-02,
6,1.60e-03,-1.20e-02,
7,8.00e-04,-8.00e-03,
8,1.60e-03,-1.60e-02,
9,8.00e-04,-4.00e-03,
10,1.60e-03,-1.20e-02,
11,8.00e-04,-4.00e-03,
12,1.60e-03,-8.00e-03,
13,0.00e+00,-1.20e-02,
14,0.00e+00,-8.00e-03,
15,1.60e-03,-1.20e-02,
16,1.60e-03,-8.00e-03,
17,0.00e+00,-1.20e-02,
18,1.60e-03,-1.20e-02,
19,8.00e-04,-4.00e-03,
20,0.00e+00,-8.00e-03,
21,1.60e-03,-1.20e-02,
22,1.60e-03,-4.00e-03,
23,0.00e+00,-1.20e-02,
24,8.00e-04,-4.00e-03,
25,1.60e-03,-1.20e-02,
26,1.60e-03,-4.00e-03,
27,8.00e-04,-1.20e-02,
28,1.60e-03,-1.20e-02,
29,0.00e+00,-8.00e-03,
30,8.00e-04,-1.20e-02,
31,1.60e-03,-4.00e-03,
32,1.60e-03,-1.20e-02,
33,0.00e+00,-8.00e-03,
34,1.60e-03,-4.00e-03,
35,8.00e-04,-1.20e-02,
36,8.00e-04,-8.00e-03,
37,1.60e-03,-1.20e-02,
38,8.00e-04,-1.20e-02,
39,1.60e-03,-8.00e-03,
40,8.00e-04,-4.00e-03,
41,1.60e-03,-1.20e-02,
42,1.60e-03,-4.00e-03,
43,8.00e-04,-1.20e-02,
44,0.00e+00,-1.20e-02,
45,8.00e-04,-4.00e-03,
46,8.00e-04,-8.00e-03,
47,1.60e-03,-4.00e-03,
48,0.00e+00,-8.00e-03,
49,1.60e-03,-1.20e-02,
50,1.60e-03,-1.20e-02,
51,8.00e-04,-4.00e-03,
52,8.00e-04,-1.20e-02,
53,1.60e-03,-4.00e-03,
54,8.00e-04,-8.00e-03,
55,1.60e-03,-4.00e-03,
56,8.00e-04,-1.20e-02,
57,1.60e-03,-4.00e-03,
58,1.60e-03,-8.00e-03,
59,8.00e-04,-1.20e-02,
60,8.00e-04,-1.20e-02,
61,1.60e-03,-8.00e-03,
62,1.60e-03,-1.20e-02,
63,8.00e-04,-8.00e-03,
64,1.60e-03,-1.20e-02,
65,0.00e+00,-4.00e-03,
66,1.60e-03,-1.20e-02,
67,8.00e-04,-4.00e-03,
68,8.00e-04,-1.20e-02,
69,8.00e-04,-4.00e-03,
70,1.60e-03,-8.00e-03,
71,8.00e-04,-4.00e-03,
72,8.00e-04,-4.00e-03,
73,1.60e-03,-1.20e-02,
74,1.60e-03,-1.20e-02,
75,-8.00e-04,-4.00e-03,
76,8.00e-04,-4.00e-03,
77,1.60e-03,-1.20e-02,
78,1.60e-03,-1.20e-02,
79,0.00e+00,-8.00e-03,
80,8.00e-04,-4.00e-03,
81,1.60e-03,-1.20e-02,
82,1.60e-03,-1.20e-02,
83,8.00e-04,-4.00e-03,
84,8.00e-04,-1.20e-02,
85,1.60e-03,-4.00e-03,
86,1.60e-03,-1.20e-02,
87,8.00e-04,-4.00e-03,
88,8.00e-04,-4.00e-03,
89,1.60e-03,-1.20e-02,
90,1.60e-03,-1.20e-02,
91,8.00e-04,-4.00e-03,
92,8.00e-04,-4.00e-03,
93,0.00e+00,-1.20e-02,
94,8.00e-04,-8.00e-03,
95,1.60e-03,-4.00e-03,
96,1.60e-03,-4.00e-03,
97,0.00e+00,-8.00e-03,
98,1.60e-03,-4.00e-03,
99,8.00e-04,-1.20e-02,
100,0.00e+00,-1.20e-02,
101,1.60e-03,-4.00e-03,
102,1.60e-03,-1.20e-02,
103,8.00e-04,-4.00e-03,
104,1.60e-03,-4.00e-03,
105,0.00e+00,-1.20e-02,
106,8.00e-04,-4.00e-03,
107,1.60e-03,-1.20e-02,
108,8.00e-04,-1.20e-02,
109,1.60e-03,-4.00e-03,
110,1.60e-03,-4.00e-03,
111,8.00e-04,-1.20e-02,
112,8.00e-04,-4.00e-03,
113,1.60e-03,-1.20e-02,
114,1.60e-03,-4.00e-03,
115,8.00e-04,-1.20e-02,
116,0.00e+00,-1.20e-02,
117,1.60e-03,-4.00e-03,
118,1.60e-03,-4.00e-03,
119,8.00e-04,-1.20e-02,
120,8.00e-04,-1.20e-02,
121,1.60e-03,-8.00e-03,
122,1.60e-03,-1.20e-02,
123,0.00e+00,-4.00e-03,
124,8.00e-04,-1.20e-02,
125,1.60e-03,-8.00e-03,
126,1.60e-03,-4.00e-03,
127,8.00e-04,-1.20e-02,
128,8.00e-04,-4.00e-03,
129,1.60e-03,-1.20e-02,
130,1.60e-03,-4.00e-03,
131,8.00e-04,-1.20e-02,
132,8.00e-04,-1.20e-02,
133,1.60e-03,-4.00e-03,
134,8.00e-04,-4.00e-03,
135,1.60e-03,-8.00e-03,
136,0.00e+00,-1.20e-02,
137,1.60e-03,-8.00e-03,
138,1.60e-03,-4.00e-03,
139,8.00e-04,-1.20e-02,
140,8.00e-04,-8.00e-03,
141,1.60e-03,-4.00e-03,
142,1.60e-03,-4.00e-03,
143,0.00e+00,-8.00e-03,
144,8.00e-04,-1.20e-02,
145,1.60e-03,-8.00e-03,
146,1.60e-03,-4.00e-03,
147,8.00e-04,-8.00e-03,
148,8.00e-04,-8.00e-03,
149,1.60e-03,-1.20e-02,
150,1.60e-03,-4.00e-03,
151,8.00e-04,-1.20e-02,
152,8.00e-04,-4.00e-03,
153,1.60e-03,-1.20e-02,
154,1.60e-03,-4.00e-03,
155,8.00e-04,-1.20e-02,
156,8.00e-04,-8.00e-03,
157,1.60e-03,-1.20e-02,
158,0.00e+00,-1.20e-02,
159,1.60e-03,-4.00e-03,
160,0.00e+00,-4.00e-03,
161,1.60e-03,-1.20e-02,
162,1.60e-03,-4.00e-03,
163,0.00e+00,-8.00e-03,
164,8.00e-04,-1.20e-02,
165,1.60e-03,-4.00e-03,
166,1.60e-03,-1.20e-02,
167,8.00e-04,-4.00e-03,
168,1.60e-03,-1.20e-02,
169,8.00e-04,-4.00e-03,
170,1.60e-03,-4.00e-03,
171,8.00e-04,-1.20e-02,
172,1.60e-03,-1.20e-02,
173,0.00e+00,-4.00e-03,
174,0.00e+00,-8.00e-03,
175,1.60e-03,-4.00e-03,
176,1.60e-03,-4.00e-03,
177,0.00e+00,-1.20e-02,
178,1.60e-03,-4.00e-03,
179,8.00e-04,-1.20e-02,
180,8.00e-04,-8.00e-03,
181,1.60e-03,-1.20e-02,
182,8.00e-04,-1.20e-02,
183,1.60e-03,-4.00e-03,
184,8.00e-04,-8.00e-03,
185,1.60e-03,-4.00e-03,
186,1.60e-03,-4.00e-03,
187,0.00e+00,-8.00e-03,
188,8.00e-04,-8.00e-03,
189,1.60e-03,-8.00e-03,
190,0.00e+00,-1.20e-02,
191,1.60e-03,-4.00e-03,
192,8.00e-04,-4.00e-03,
193,1.60e-03,-1.20e-02,
194,1.60e-03,-4.00e-03,
195,8.00e-04,-8.00e-03,
196,8.00e-04,-1.20e-02,
197,1.60e-03,-4.00e-03,
198,8.00e-04,-4.00e-03,
199,1.60e-03,-8.00e-03,
200,8.00e-04,-1.20e-02,
201,1.60e-03,-4.00e-03,
202,1.60e-03,-8.00e-03,
203,8.00e-04,-4.00e-03,
204,8.00e-04,-8.00e-03,
205,1.60e-03,-4.00e-03,
206,0.00e+00,-4.00e-03,
207,1.60e-03,-8.00e-03,
208,0.00e+00,-4.00e-03,
209,1.60e-03,-8.00e-03,
210,1.60e-03,-8.00e-03,
211,0.00e+00,-4.00e-03,
212,8.00e-04,-4.00e-03,
213,1.60e-03,-8.00e-03,
214,8.00e-04,-4.00e-03,
215,1.60e-03,-4.00e-03,
216,0.00e+00,-4.00e-03,
217,1.60e-03,-8.00e-03,
218,1.60e-03,-8.00e-03,
219,8.00e-04,-4.00e-03,
220,0.00e+00,-4.00e-03,
221,1.60e-03,-8.00e-03,
222,1.60e-03,-8.00e-03,
223,0.00e+00,-4.00e-03,
224,8.00e-04,-8.00e-03,
225,1.60e-03,-4.00e-03,
226,1.60e-03,-4.00e-03,
227,8.00e-04,-4.00e-03,
228,8.00e-04,-8.00e-03,
229,1.60e-03,0.00e+00,
230,8.00e-04,-4.00e-03,
231,1.60e-03,0.00e+00,
232,1.60e-03,0.00e+00,
233,0.00e+00,-8.00e-03,
234,1.60e-03,0.00e+00,
235,0.00e+00,-4.00e-03,
236,8.00e-04,0.00e+00,
237,1.60e-03,0.00e+00,
238,8.00e-04,0.00e+00,
239,1.60e-03,0.00e+00,
240,8.00e-04,4.00e-03,
241,1.60e-03,-4.00e-03,
242,1.60e-03,0.00e+00,
243,8.00e-04,4.00e-03,
244,8.00e-04,-4.00e-03,
245,1.60e-03,0.00e+00,
246,0.00e+00,0.00e+00,
247,1.60e-03,4.00e-03,
248,8.00e-04,-4.00e-03,
249,1.60e-03,8.00e-03,
250,1.60e-03,4.00e-03,
251,8.00e-04,8.00e-03,
252,8.00e-04,4.00e-03,
253,1.60e-03,8.00e-03,
254,8.00e-04,4.00e-03,
255,1.60e-03,8.00e-03,
256,8.00e-04,8.00e-03,
257,1.60e-03,8.00e-03,
258,1.60e-03,8.00e-03,
259,8.00e-04,1.20e-02,
260,0.00e+00,1.20e-02,
261,8.00e-04,8.00e-03,
262,1.60e-03,1.20e-02,
263,0.00e+00,1.20e-02,
264,8.00e-04,1.20e-02,
265,1.60e-03,1.20e-02,
266,1.60e-03,1.60e-02,
267,8.00e-04,1.20e-02,
268,8.00e-04,1.60e-02,
269,1.60e-03,1.60e-02,
270,1.60e-03,1.60e-02,
271,8.00e-04,2.40e-02,
272,8.00e-04,2.40e-02,
273,1.60e-03,2.00e-02,
274,1.60e-03,2.40e-02,
275,8.00e-04,2.00e-02,
276,8.00e-04,2.00e-02,
277,1.60e-03,2.80e-02,
278,8.00e-04,2.80e-02,
279,1.60e-03,2.40e-02,
280,0.00e+00,2.80e-02,
281,1.60e-03,3.20e-02,
282,1.60e-03,2.80e-02,
283,0.00e+00,3.20e-02,
284,1.60e-03,2.80e-02,
285,0.00e+00,3.60e-02,
286,8.00e-04,3.60e-02,
287,1.60e-03,3.20e-02,
288,8.00e-04,3.60e-02,
289,1.60e-03,4.00e-02,
290,2.40e-03,4.00e-02,
291,8.00e-04,4.00e-02,
292,1.60e-03,4.00e-02,
293,8.00e-04,4.40e-02,
294,8.00e-04,4.40e-02,
295,0.00e+00,4.40e-02,
296,1.60e-03,4.40e-02,
297,0.00e+00,4.80e-02,
298,8.00e-04,4.80e-02,
299,2.40e-03,5.20e-02,
300,4.00e-03,5.20e-02,
301,0.00e+00,5.20e-02,
302,-2.40e-03,5.20e-02,
303,-2.24e-02,5.60e-02,
304,-2.80e-02,5.60e-02,
305,-4.08e-02,5.60e-02,
306,-4.32e-02,5.60e-02,
307,-4.72e-02,6.40e-02,
308,-4.80e-02,6.00e-02,
309,-4.88e-02,6.40e-02,
310,-4.80e-02,6.40e-02,
311,-4.88e-02,6.80e-02,
312,-4.72e-02,6.40e-02,
313,-4.56e-02,7.20e-02,
314,-4.48e-02,6.80e-02,
315,-4.32e-02,7.20e-02,
316,-4.24e-02,7.60e-02,
317,-3.92e-02,7.20e-02,
318,-3.92e-02,7.20e-02,
319,-3.76e-02,8.00e-02,
320,-3.60e-02,8.00e-02,
321,-3.44e-02,7.60e-02,
322,-3.28e-02,8.00e-02,
323,-2.96e-02,8.40e-02,
324,-3.04e-02,8.40e-02,
325,-2.80e-02,8.00e-02,
326,-2.80e-02,8.00e-02,
327,-2.56e-02,8.80e-02,
328,-2.56e-02,8.80e-02,
329,-2.40e-02,9.20e-02,
330,-2.40e-02,9.20e-02,
331,-2.08e-02,9.20e-02,
332,-2.24e-02,9.20e-02,
333,-2.00e-02,9.60e-02,
334,-2.08e-02,9.60e-02,
335,-1.92e-02,9.60e-02,
336,-1.92e-02,9.60e-02,
337,-1.76e-02,1.00e-01,
338,-1.76e-02,1.00e-01,
339,-1.60e-02,1.08e-01,
340,-1.76e-02,1.08e-01,
341,-1.60e-02,1.04e-01,
342,-1.52e-02,1.04e-01,
343,-1.60e-02,1.12e-01,
344,-1.52e-02,1.12e-01,
345,-1.44e-02,1.08e-01,
346,-1.44e-02,1.08e-01,
347,-1.36e-02,1.16e-01,
348,-1.44e-02,1.16e-01,
349,-1.36e-02,1.16e-01,
350,-1.36e-02,1.16e-01,
351,-1.28e-02,1.20e-01,
352,-1.36e-02,1.20e-01,
353,-1.28e-02,1.16e-01,
354,-1.36e-02,1.16e-01,
355,-1.20e-02,1.24e-01,
356,-1.28e-02,1.16e-01,
357,-1.20e-02,1.24e-01,
358,-1.28e-02,1.24e-01,
359,-1.20e-02,1.20e-01,
360,-1.28e-02,1.20e-01,
361,-1.20e-02,1.28e-01,
362,-1.20e-02,1.28e-01,
363,-1.28e-02,1.28e-01,
364,-1.12e-02,1.28e-01,
365,-1.28e-02,1.32e-01,
366,-1.12e-02,1.28e-01,
367,-1.28e-02,1.32e-01,
368,-1.20e-02,1.32e-01,
369,-1.12e-02,1.32e-01,
370,-1.12e-02,1.32e-01,
371,-1.20e-02,1.36e-01,
372,-1.20e-02,1.32e-01,
373,-1.28e-02,1.36e-01,
374,-1.12e-02,1.36e-01,
375,-1.20e-02,1.36e-01,
376,-1.20e-02,1.40e-01,
377,-1.20e-02,1.40e-01,
378,-1.04e-02,1.40e-01,
379,-1.20e-02,1.36e-01,
380,-1.12e-02,1.36e-01,
381,-1.20e-02,1.40e-01,
382,-1.20e-02,1.40e-01,
383,-1.12e-02,1.44e-01,
384,-1.20e-02,1.40e-01,
385,-1.20e-02,1.44e-01,
386,-1.12e-02,1.44e-01,
387,-1.20e-02,1.40e-01,
388,-1.20e-02,1.44e-01,
389,-1.28e-02,1.40e-01,
390,-1.28e-02,1.40e-01,
391,-1.12e-02,1.44e-01,
392,-1.12e-02,1.44e-01,
393,-1.20e-02,1.40e-01,
394,-1.20e-02,1.40e-01,
395,-1.04e-02,1.40e-01,
396,-1.28e-02,1.40e-01,
397,-1.20e-02,1.44e-01,
398,-1.28e-02,1.40e-01,
399,-1.12e-02,1.44e-01,
400,-1.28e-02,1.40e-01,
401,-1.12e-02,1.40e-01,
402,-1.28e-02,1.40e-01,
403,-1.12e-02,1.40e-01,
404,-1.20e-02,1.40e-01,
405,-1.28e-02,1.40e-01,
406,-1.20e-02,1.40e-01,
407,-1.04e-02,1.40e-01,
408,-1.20e-02,1.40e-01,
409,-1.20e-02,1.40e-01,
410,-1.12e-02,1.40e-01,
411,-1.20e-02,1.40e-01,
412,-1.12e-02,1.40e-01,
413,-1.20e-02,1.36e-01,
414,-1.20e-02,1.36e-01,
415,-1.12e-02,1.36e-01,
416,-1.20e-02,1.36e-01,
417,-1.20e-02,1.36e-01,
418,-1.20e-02,1.36e-01,
419,-1.12e-02,1.36e-01,
420,-1.20e-02,1.36e-01,
421,-1.12e-02,1.36e-01,
422,-1.20e-02,1.36e-01,
423,-1.12e-02,1.32e-01,
424,-1.20e-02,1.32e-01,
425,-1.20e-02,1.32e-01,
426,-1.12e-02,1.32e-01,
427,-1.28e-02,1.28e-01,
428,-1.20e-02,1.32e-01,
429,-1.20e-02,1.28e-01,
430,-1.12e-02,1.28e-01,
431,-1.28e-02,1.28e-01,
432,-1.20e-02,1.28e-01,
433,-1.12e-02,1.24e-01,
434,-1.12e-02,1.28e-01,
435,-1.20e-02,1.24e-01,
436,-1.20e-02,1.24e-01,
437,-1.12e-02,1.20e-01,
438,-1.20e-02,1.20e-01,
439,-1.12e-02,1.20e-01,
440,-1.12e-02,1.20e-01,
441,-1.28e-02,1.16e-01,
442,-1.12e-02,1.16e-01,
443,-1.28e-02,1.20e-01,
444,-1.20e-02,1.16e-01,
445,-1.12e-02,1.12e-01,
446,-1.20e-02,1.12e-01,
447,-1.04e-02,1.08e-01,
448,-1.20e-02,1.08e-01,
449,-1.20e-02,1.16e-01,
450,-1.12e-02,1.08e-01,
451,-1.28e-02,1.12e-01,
452,-1.20e-02,1.08e-01,
453,-1.12e-02,1.04e-01,
454,-1.20e-02,1.08e-01,
455,-1.12e-02,1.04e-01,
456,-1.20e-02,1.04e-01,
457,-1.20e-02,1.00e-01,
458,-1.20e-02,1.00e-01,
459,-1.12e-02,9.60e-02,
460,-1.20e-02,9.60e-02,
461,-1.12e-02,1.00e-01,
462,-1.20e-02,9.60e-02,
463,-1.12e-02,9.20e-02,
464,-1.20e-02,9.20e-02,
465,-1.12e-02,9.20e-02,
466,-1.12e-02,9.20e-02,
467,-1.20e-02,8.80e-02,
468,-1.12e-02,8.40e-02,
469,-1.28e-02,8.00e-02,
470,-1.20e-02,8.40e-02,
471,-1.04e-02,8.00e-02,
472,-1.12e-02,8.00e-02,
473,-1.20e-02,7.60e-02,
474,-1.12e-02,8.00e-02,
475,-1.20e-02,7.20e-02,
476,-1.20e-02,7.20e-02,
477,-1.12e-02,7.60e-02,
478,-1.04e-02,7.60e-02,
479,-1.28e-02,7.20e-02,
480,-1.20e-02,6.80e-02,
481,-1.20e-02,7.20e-02,
482,-1.20e-02,6.40e-02,
483,-1.12e-02,6.40e-02,
484,-1.20e-02,6.00e-02,
485,-1.20e-02,6.80e-02,
486,-1.20e-02,6.00e-02,
487,-1.12e-02,5.60e-02,
488,-1.20e-02,5.60e-02,
489,-1.20e-02,6.00e-02,
490,-1.12e-02,5.60e-02,
491,-1.28e-02,5.20e-02,
492,-1.20e-02,5.20e-02,
493,-1.12e-02,4.80e-02,
494,-1.20e-02,4.40e-02,
495,-1.04e-02,4.80e-02,
496,-1.20e-02,4.80e-02,
497,-1.12e-02,4.40e-02,
498,-1.12e-02,4.40e-02,
499,-1.20e-02,3.60e-02,
500,-1.20e-02,3.60e-02,
501,-1.20e-02,4.00e-02,
502,-1.20e-02,4.00e-02,
503,-1.12e-02,3.20e-02,
504,-1.20e-02,3.60e-02,
505,-1.20e-02,3.20e-02,
506,-1.12e-02,3.20e-02,
507,-1.20e-02,2.80e-02,
508,-1.20e-02,2.40e-02,
509,-1.12e-02,2.80e-02,
510,-1.20e-02,2.80e-02,
511,-1.28e-02,2.00e-02,
512,-1.20e-02,2.00e-02,
513,-1.12e-02,1.60e-02,
514,-1.12e-02,2.00e-02,
515,-1.20e-02,1.60e-02,
516,-1.20e-02,1.60e-02,
517,-1.12e-02,1.20e-02,
518,-1.20e-02,1.20e-02,
519,-1.12e-02,8.00e-03,
520,-1.20e-02,8.00e-03,
521,-1.12e-02,1.20e-02,
522,-1.04e-02,8.00e-03,
523,-1.20e-02,4.00e-03,
524,-1.20e-02,4.00e-03,
525,-1.12e-02,4.00e-03,
526,-1.12e-02,0.00e+00,
527,-1.28e-02,4.00e-03,
528,-1.20e-02,0.00e+00,
529,-1.12e-02,-8.00e-03,
530,-1.12e-02,-4.00e-03,
531,-1.20e-02,-8.00e-03,
532,-1.20e-02,-8.00e-03,
533,-1.12e-02,-1.20e-02,
534,-1.20e-02,-8.00e-03,
535,-1.12e-02,-1.60e-02,
536,-1.20e-02,-1.60e-02,
537,-1.12e-02,-1.60e-02,
538,-1.20e-02,-1.60e-02,
539,-1.12e-02,-2.00e-02,
540,-1.20e-02,-2.00e-02,
541,-1.20e-02,-2.00e-02,
542,-1.20e-02,-2.40e-02,
543,-1.12e-02,-2.00e-02,
544,-1.20e-02,-2.40e-02,
545,-1.20e-02,-2.00e-02,
546,-1.12e-02,-2.40e-02,
547,-1.28e-02,-2.80e-02,
548,-1.20e-02,-2.80e-02,
549,-1.12e-02,-3.20e-02,
550,-1.20e-02,-3.20e-02,
551,-1.12e-02,-3.20e-02,
552,-1.20e-02,-3.20e-02,
553,-1.12e-02,-3.60e-02,
554,-1.12e-02,-3.20e-02,
555,-1.20e-02,-3.60e-02,
556,-1.20e-02,-3.60e-02,
557,-1.12e-02,-4.00e-02,
558,-1.20e-02,-4.00e-02,
559,-1.04e-02,-4.00e-02,
560,-1.20e-02,-4.40e-02,
561,-1.12e-02,-4.80e-02,
562,-1.04e-02,-4.00e-02,
563,-1.20e-02,-4.80e-02,
564,-1.20e-02,-4.40e-02,
565,-1.04e-02,-5.20e-02,
566,-1.12e-02,-4.80e-02,
567,-1.20e-02,-5.20e-02,
568,-1.20e-02,-5.60e-02,
569,-1.12e-02,-4.80e-02,
570,-1.12e-02,-5.20e-02,
571,-1.20e-02,-5.60e-02,
572,-1.20e-02,-5.20e-02,
573,-1.12e-02,-6.00e-02,
574,-1.20e-02,-6.00e-02,
575,-1.12e-02,-5.60e-02,
576,-1.12e-02,-6.00e-02,
577,-1.28e-02,-5.60e-02,
578,-1.12e-02,-6.40e-02,
579,-1.20e-02,-5.60e-02,
580,-1.20e-02,-6.40e-02,
581,-1.12e-02,-6.40e-02,
582,-1.12e-02,-6.40e-02,
583,-1.20e-02,-6.00e-02,
584,-1.20e-02,-6.80e-02,
585,-1.04e-02,-6.40e-02,
586,-1.20e-02,-6.40e-02,
587,-1.04e-02,-6.80e-02,
588,-1.20e-02,-7.20e-02,
589,-1.12e-02,-6.40e-02,
590,-1.12e-02,-7.20e-02,
591,-1.28e-02,-7.20e-02,
592,-1.12e-02,-7.20e-02,
593,-1.28e-02,-7.20e-02,
594,-1.12e-02,-7.20e-02,
595,-1.28e-02,-7.60e-02,
596,-1.12e-02,-7.60e-02,
597,-1.20e-02,-7.60e-02,
598,-1.20e-02,-7.60e-02,
599,-1.04e-02,-8.00e-02,
600,-1.20e-02,-7.60e-02,
601,-1.12e-02,-8.00e-02,
602,-1.12e-02,-7.60e-02,
603,-1.20e-02,-8.40e-02,
604,-1.20e-02,-8.00e-02,
605,-1.12e-02,-8.00e-02,
606,-1.20e-02,-8.00e-02,
607,-1.28e-02,-8.00e-02,
608,-1.20e-02,-8.00e-02,
609,-1.28e-02,-8.00e-02,
610,-1.28e-02,-8.00e-02,
611,-1.12e-02,-8.80e-02,
612,-1.20e-02,-8.80e-02,
613,-2.16e-02,-8.40e-02,
614,-2.16e-02,-8.80e-02,
615,-3.20e-02,-8.40e-02,
616,-3.44e-02,-8.80e-02,
617,-4.40e-02,-8.40e-02,
618,-4.72e-02,-8.40e-02,
619,-5.60e-02,-8.80e-02,
620,-5.68e-02,-8.40e-02,
621,-6.40e-02,-9.20e-02,
622,-6.64e-02,-8.80e-02,
623,-7.28e-02,-8.80e-02,
624,-7.44e-02,-8.80e-02,
625,-7.84e-02,-8.80e-02,
626,-8.00e-02,-8.80e-02,
627,-8.32e-02,-9.20e-02,
628,-8.40e-02,-9.20e-02,
629,-8.56e-02,-8.80e-02,
630,-8.56e-02,-9.20e-02,
631,-8.56e-02,-8.80e-02,
632,-8.48e-02,-8.80e-02,
633,-8.08e-02,-9.60e-02,
634,-8.08e-02,-9.60e-02,
635,-7.60e-02,-8.80e-02,
636,-7.44e-02,-9.20e-02,
637,-7.12e-02,-9.60e-02,
638,-6.96e-02,-9.20e-02,
639,-6.32e-02,-9.60e-02,
640,-6.16e-02,-8.80e-02,
641,-5.60e-02,-9.60e-02,
642,-5.44e-02,-9.60e-02,
643,-4.96e-02,-9.20e-02,
644,-4.80e-02,-9.60e-02,
645,-4.24e-02,-9.20e-02,
646,-4.08e-02,-9.60e-02,
647,-3.60e-02,-8.80e-02,
648,-3.60e-02,-9.60e-02,
649,-3.12e-02,-8.80e-02,
650,-2.96e-02,-9.60e-02,
651,-2.56e-02,-9.20e-02,
652,-2.56e-02,-9.60e-02,
653,-2.16e-02,-9.20e-02,
654,-2.08e-02,-9.60e-02,
655,-1.76e-02,-9.20e-02,
656,-1.76e-02,-9.60e-02,
657,-1.52e-02,-9.20e-02,
658,-1.36e-02,-9.20e-02,
659,-1.12e-02,-9.60e-02,
660,-1.12e-02,-9.60e-02,
661,-8.80e-03,-9.20e-02,
662,-8.00e-03,-9.20e-02,
663,-7.20e-03,-9.60e-02,
664,-8.00e-03,-9.20e-02,
665,-5.60e-03,-9.60e-02,
666,-5.60e-03,-9.60e-02,
667,-3.20e-03,-9.20e-02,
668,-4.80e-03,-9.60e-02,
669,-3.20e-03,-9.20e-02,
670,-3.20e-03,-9.60e-02,
671,-1.60e-03,-9.20e-02,
672,-2.40e-03,-9.20e-02,
673,-8.00e-04,-9.60e-02,
674,-1.60e-03,-9.20e-02,
675,0.00e+00,-9.60e-02,
676,-8.00e-04,-9.60e-02,
677,0.00e+00,-8.80e-02,
678,8.00e-04,-9.60e-02,
679,0.00e+00,-9.20e-02,
680,0.00e+00,-9.20e-02,
681,8.00e-04,-8.80e-02,
682,1.60e-03,-8.80e-02,
683,-8.00e-04,-9.20e-02,
684,8.00e-04,-9.60e-02,
685,1.60e-03,-9.20e-02,
686,8.00e-04,-9.60e-02,
687,1.60e-03,-8.80e-02,
688,8.00e-04,-9.20e-02,
689,1.60e-03,-8.80e-02,
690,8.00e-04,-8.80e-02,
691,2.40e-03,-9.20e-02,
692,2.40e-03,-8.80e-02,
693,8.00e-04,-8.80e-02,
694,2.40e-03,-8.80e-02,
695,1.60e-03,-8.80e-02,
696,8.00e-04,-8.40e-02,
697,2.40e-03,-9.20e-02,
698,2.40e-03,-8.40e-02,
699,8.00e-04,-9.20e-02,
700,1.60e-03,-8.40e-02,
701,8.00e-04,-9.20e-02,
702,2.40e-03,-8.80e-02,
703,8.00e-04,-8.40e-02,
704,1.60e-03,-8.40e-02,
705,8.00e-04,-8.40e-02,
706,2.40e-03,-8.40e-02,
707,8.00e-04,-8.80e-02,
708,1.60e-03,-8.40e-02,
709,1.60e-03,-8.80e-02,
710,2.40e-03,-8.80e-02,
711,8.00e-04,-8.40e-02,
712,2.40e-03,-8.00e-02,
713,8.00e-04,-8.80e-02,
714,2.40e-03,-8.00e-02,
715,1.60e-03,-8.80e-02,
716,8.00e-04,-8.00e-02,
717,2.40e-03,-8.80e-02,
718,8.00e-04,-8.00e-02,
719,2.40e-03,-8.00e-02,
720,1.60e-03,-8.00e-02,
721,8.00e-04,-8.00e-02,
722,2.40e-03,-8.00e-02,
723,8.00e-04,-8.40e-02,
724,1.60e-03,-8.00e-02,
725,8.00e-04,-8.40e-02,
726,2.40e-03,-8.00e-02,
727,8.00e-04,-7.60e-02,
728,2.40e-03,-8.40e-02,
729,8.00e-04,-7.60e-02,
730,2.40e-03,-8.40e-02,
731,0.00e+00,-7.60e-02,
732,8.00e-04,-8.00e-02,
733,1.60e-03,-7.60e-02,
734,8.00e-04,-7.60e-02,
735,2.40e-03,-7.60e-02,
736,1.60e-03,-7.60e-02,
737,8.00e-04,-7.60e-02,
738,2.40e-03,-7.60e-02,
739,8.00e-04,-7.60e-02,
740,8.00e-04,-7.60e-02,
741,1.60e-03,-7.20e-02,
742,1.60e-03,-7.60e-02,
743,8.00e-04,-7.20e-02,
744,8.00e-04,-7.60e-02,
745,1.60e-03,-7.20e-02,
746,1.60e-03,-7.20e-02,
747,8.00e-04,-7.20e-02,
748,8.00e-04,-7.20e-02,
749,1.60e-03,-7.20e-02,
750,1.60e-03,-7.20e-02,
751,8.00e-04,-7.20e-02,
752,1.60e-03,-7.20e-02,
753,8.00e-04,-6.80e-02,
754,8.00e-04,-7.20e-02,
755,2.40e-03,-6.80e-02,
756,1.60e-03,-7.20e-02,
757,8.00e-04,-6.80e-02,
758,8.00e-04,-7.20e-02,
759,2.40e-03,-6.40e-02,
760,8.00e-04,-6.40e-02,
761,1.60e-03,-6.80e-02,
762,2.40e-03,-6.80e-02,
763,8.00e-04,-6.80e-02,
764,8.00e-04,-6.80e-02,
765,1.60e-03,-6.80e-02,
766,1.60e-03,-6.80e-02,
767,8.00e-04,-6.40e-02,
768,8.00e-04,-6.40e-02,
769,1.60e-03,-6.80e-02,
770,2.40e-03,-6.80e-02,
771,8.00e-04,-6.00e-02,
772,8.00e-04,-6.00e-02,
773,1.60e-03,-6.40e-02,
774,1.60e-03,-6.00e-02,
775,8.00e-04,-6.40e-02,
776,1.60e-03,-6.40e-02,
777,0.00e+00,-6.00e-02,
778,8.00e-04,-6.40e-02,
779,1.60e-03,-6.00e-02,
780,8.00e-04,-6.40e-02,
781,1.60e-03,-6.00e-02,
782,1.60e-03,-6.40e-02,
783,8.00e-04,-6.00e-02,
784,8.00e-04,-6.00e-02,
785,1.60e-03,-5.60e-02,
786,1.60e-03,-5.60e-02,
787,8.00e-04,-6.00e-02,
788,8.00e-04,-6.00e-02,
789,1.60e-03,-6.00e-02,
790,8.00e-04,-6.00e-02,
791,2.40e-03,-5.60e-02,
792,8.00e-04,-6.00e-02,
793,1.60e-03,-6.00e-02,
794,1.60e-03,-5.60e-02,
795,8.00e-04,-5.60e-02,
796,8.00e-04,-6.00e-02,
797,1.60e-03,-5.20e-02,
798,8.00e-04,-6.00e-02,
799,2.40e-03,-5.60e-02,
800,8.00e-04,-5.20e-02,
801,1.60e-03,-5.20e-02,
802,1.60e-03,-5.60e-02,
803,8.00e-04,-5.20e-02,
804,1.60e-03,-5.20e-02,
805,0.00e+00,-5.60e-02,
806,1.60e-03,-5.60e-02,
807,8.00e-04,-4.80e-02,
808,1.60e-03,-6.00e-02,
809,8.00e-04,-4.80e-02,
810,2.40e-03,-5.20e-02,
811,8.00e-04,-5.60e-02,
812,1.60e-03,-5.60e-02,
813,8.00e-04,-5.20e-02,
814,1.60e-03,-5.60e-02,
815,8.00e-04,-4.80e-02,
816,8.00e-04,-5.20e-02,
817,1.60e-03,-5.60e-02,
818,1.60e-03,-5.20e-02,
819,8.00e-04,-4.80e-02,
820,8.00e-04,-5.20e-02,
821,1.60e-03,-4.80e-02,
822,8.00e-04,-5.20e-02,
823,2.40e-03,-4.80e-02,
824,8.00e-04,-5.20e-02,
825,1.60e-03,-4.80e-02,
826,1.60e-03,-5.20e-02,
827,8.00e-04,-4.80e-02,
828,8.00e-04,-5.20e-02,
829,1.60e-03,-4.80e-02,
830,1.60e-03,-5.20e-02,
